Tag Library Index 1.1.0
BUILDPATH_DIRTY|false
BUILDPATH_ENTRIES|109
JAR|false|false|D:/Software/glassfish5/glassfish/modules/javax.servlet.jsp.jstl-api.jar
JAR|false|false|D:/Software/glassfish5/glassfish/modules/jersey-server.jar
JAR|false|false|E:/2020sem2/FIT5042/JEE_Library/glassfish-oracle-jdbc-driver-packages.jar
JAR|false|false|C:/Program Files/Java/jdk1.8.0_251/jre/lib/ext/sunmscapi.jar
JAR|false|false|D:/Software/glassfish5/glassfish/modules/javax.mail.jar
JAR|false|false|D:/Software/glassfish5/glassfish/modules/jersey-mvc.jar
JAR|false|false|D:/Software/glassfish5/glassfish/modules/webservices-extra-jdk-packages.jar
JAR|false|false|D:/Software/glassfish5/glassfish/modules/jersey-cdi1x.jar
JAR|false|false|D:/Software/glassfish5/glassfish/modules/javax.security.enterprise.jar
JAR|false|false|D:/Software/glassfish5/glassfish/modules/jersey-media-moxy.jar
JAR|false|false|D:/Software/glassfish5/glassfish/modules/javax.servlet.jsp.jstl.jar
URL|false|jar:file:D:/Software/glassfish5/glassfish/modules/javax.servlet.jsp.jstl.jar!/META-INF/c.tld
URL|false|jar:file:D:/Software/glassfish5/glassfish/modules/javax.servlet.jsp.jstl.jar!/META-INF/c-1_0.tld
URL|false|jar:file:D:/Software/glassfish5/glassfish/modules/javax.servlet.jsp.jstl.jar!/META-INF/fmt.tld
URL|false|jar:file:D:/Software/glassfish5/glassfish/modules/javax.servlet.jsp.jstl.jar!/META-INF/permittedTaglibs.tld
URL|false|jar:file:D:/Software/glassfish5/glassfish/modules/javax.servlet.jsp.jstl.jar!/META-INF/c-1_0-rt.tld
URL|false|jar:file:D:/Software/glassfish5/glassfish/modules/javax.servlet.jsp.jstl.jar!/META-INF/fmt-1_0-rt.tld
URL|false|jar:file:D:/Software/glassfish5/glassfish/modules/javax.servlet.jsp.jstl.jar!/META-INF/sql.tld
URL|false|jar:file:D:/Software/glassfish5/glassfish/modules/javax.servlet.jsp.jstl.jar!/META-INF/scriptfree.tld
URL|false|jar:file:D:/Software/glassfish5/glassfish/modules/javax.servlet.jsp.jstl.jar!/META-INF/sql-1_0-rt.tld
URL|false|jar:file:D:/Software/glassfish5/glassfish/modules/javax.servlet.jsp.jstl.jar!/META-INF/x-1_0-rt.tld
URL|false|jar:file:D:/Software/glassfish5/glassfish/modules/javax.servlet.jsp.jstl.jar!/META-INF/x-1_0.tld
URL|false|jar:file:D:/Software/glassfish5/glassfish/modules/javax.servlet.jsp.jstl.jar!/META-INF/fn.tld
URL|false|jar:file:D:/Software/glassfish5/glassfish/modules/javax.servlet.jsp.jstl.jar!/META-INF/fmt-1_0.tld
URL|false|jar:file:D:/Software/glassfish5/glassfish/modules/javax.servlet.jsp.jstl.jar!/META-INF/sql-1_0.tld
URL|false|jar:file:D:/Software/glassfish5/glassfish/modules/javax.servlet.jsp.jstl.jar!/META-INF/x.tld
JAR|false|false|D:/Software/glassfish5/glassfish/modules/ha-api.jar
JAR|false|false|D:/Software/glassfish5/glassfish/modules/javax.servlet.jsp-api.jar
JAR|false|false|C:/Program Files/Java/jdk1.8.0_251/jre/lib/resources.jar
JAR|false|false|D:/Software/glassfish5/glassfish/modules/org.eclipse.persistence.moxy.jar
JAR|false|false|D:/Software/glassfish5/glassfish/modules/javax.servlet.jsp.jar
JAR|false|false|D:/Software/glassfish5/glassfish/modules/jersey-media-sse.jar
JAR|false|false|D:/Software/glassfish5/glassfish/modules/endorsed/webservices-api-osgi.jar
JAR|false|false|E:/2020sem2/FIT5042/JEE_Library/derbyclient.jar
JAR|false|false|C:/Program Files/Java/jdk1.8.0_251/jre/lib/ext/sunec.jar
JAR|false|false|D:/Software/glassfish5/glassfish/modules/javax.management.j2ee-api.jar
JAR|false|false|D:/Software/glassfish5/glassfish/modules/jersey-bean-validation.jar
JAR|false|false|E:/2020sem2/FIT5042/JEE_Library/javax.persistence.jar
JAR|false|false|D:/Software/glassfish5/glassfish/modules/jersey-container-servlet.jar
JAR|false|false|C:/Program Files/Java/jdk1.8.0_251/jre/lib/rt.jar
JAR|false|false|C:/Program Files/Java/jdk1.8.0_251/jre/lib/ext/dnsns.jar
JAR|false|false|E:/2020sem2/FIT5042/JEE_Library/derbynet.jar
JAR|false|false|D:/Software/glassfish5/glassfish/modules/glassfish-api.jar
JAR|false|false|D:/Software/glassfish5/glassfish/modules/jersey-common.jar
JAR|false|false|D:/Software/glassfish5/glassfish/modules/jersey-media-jaxb.jar
JAR|false|false|D:/Software/glassfish5/glassfish/modules/javax.xml.registry-api.jar
JAR|false|false|D:/Software/glassfish5/glassfish/modules/jersey-gf-ejb.jar
JAR|false|false|D:/Software/glassfish5/glassfish/modules/endorsed/javax.annotation-api.jar
JAR|false|false|D:/Software/glassfish5/glassfish/modules/javax.xml.rpc-api.jar
JAR|false|false|D:/Software/glassfish5/glassfish/modules/jersey-container-servlet-core.jar
JAR|false|false|D:/Software/glassfish5/glassfish/modules/javax.servlet-api.jar
JAR|false|false|C:/Program Files/Java/jdk1.8.0_251/jre/lib/ext/access-bridge-64.jar
JAR|true|false|D:/Software/glassfish5/glassfish/modules/jersey-mvc-jsp.jar
URL|false|jar:file:D:/Software/glassfish5/glassfish/modules/jersey-mvc-jsp.jar!/META-INF/taglib.tld
JAR|false|false|C:/Program Files/Java/jdk1.8.0_251/jre/lib/ext/cldrdata.jar
JAR|false|false|D:/Software/glassfish5/glassfish/modules/endorsed/grizzly-npn-bootstrap.jar
JAR|false|false|D:/Software/glassfish5/glassfish/modules/javax.persistence.jar
JAR|false|false|C:/Program Files/Java/jdk1.8.0_251/jre/lib/jfr.jar
JAR|false|false|C:/Program Files/Java/jdk1.8.0_251/jre/lib/jce.jar
JAR|false|false|D:/Software/glassfish5/glassfish/modules/jersey-mvc-connector.jar
JAR|false|false|D:/Software/glassfish5/glassfish/modules/endorsed/jaxb-api.jar
JAR|false|false|D:/Software/glassfish5/glassfish/modules/weld-osgi-bundle.jar
JAR|false|false|D:/Software/glassfish5/glassfish/modules/org.eclipse.persistence.oracle.jar
JAR|false|false|D:/Software/glassfish5/glassfish/modules/javax.json.bind-api.jar
JAR|false|false|D:/Software/glassfish5/glassfish/modules/javax.json.jar
JAR|false|false|E:/2020sem2/FIT5042/JEE_Library/javaee-api-7.0.jar
JAR|false|false|D:/Software/glassfish5/glassfish/modules/javax.inject.jar
JAR|false|false|D:/Software/glassfish5/glassfish/modules/jersey-client.jar
JAR|false|false|C:/Program Files/Java/jdk1.8.0_251/jre/lib/charsets.jar
JAR|false|false|C:/Program Files/Java/jdk1.8.0_251/jre/lib/ext/nashorn.jar
JAR|false|false|D:/Software/glassfish5/glassfish/modules/javax.enterprise.concurrent.jar
JAR|false|false|D:/Software/glassfish5/glassfish/modules/org.eclipse.persistence.antlr.jar
JAR|false|false|D:/Software/glassfish5/glassfish/modules/javax.ejb-api.jar
JAR|false|false|C:/Program Files/Java/jdk1.8.0_251/jre/lib/ext/sunpkcs11.jar
JAR|false|false|D:/Software/glassfish5/glassfish/modules/javax.ws.rs-api.jar
JAR|false|false|D:/Software/glassfish5/glassfish/modules/org.eclipse.persistence.core.jar
JAR|false|false|D:/Software/glassfish5/glassfish/modules/javax.websocket-api.jar
JAR|false|false|D:/Software/glassfish5/glassfish/modules/org.eclipse.persistence.jpa.jpql.jar
JAR|false|false|E:/2020sem2/FIT5042/JEE_Library/derby.jar
JAR|false|false|D:/Software/glassfish5/glassfish/modules/javax.security.enterprise-api.jar
JAR|false|false|D:/Software/glassfish5/glassfish/modules/javax.batch-api.jar
JAR|false|false|E:/2020sem2/FIT5042/JEE_Library/javax.persistence-2.1.0.jar
JAR|false|false|D:/Software/glassfish5/glassfish/modules/org.eclipse.persistence.asm.jar
JAR|false|false|D:/Software/glassfish5/glassfish/modules/javax.security.jacc-api.jar
JAR|false|false|C:/Program Files/Java/jdk1.8.0_251/jre/lib/jsse.jar
JAR|false|false|D:/Software/glassfish5/glassfish/modules/jaxb-osgi.jar
JAR|false|false|E:/2020sem2/FIT5042/JEE_Library/eclipselink-2.5.2-M1.jar
JAR|false|false|D:/Software/glassfish5/glassfish/modules/org.eclipse.persistence.jpa.modelgen.processor.jar
JAR|false|false|D:/Software/glassfish5/glassfish/modules/jersey-media-json-jettison.jar
JAR|false|false|D:/Software/glassfish5/glassfish/modules/jersey-media-json-binding.jar
JAR|false|false|D:/Software/glassfish5/glassfish/modules/org.eclipse.persistence.jpa.jar
JAR|false|false|D:/Software/glassfish5/glassfish/modules/webservices.security.jar
JAR|false|false|D:/Software/glassfish5/glassfish/modules/javax.enterprise.deploy-api.jar
JAR|false|false|D:/Software/glassfish5/glassfish/modules/jaxb-extra-osgi.jar
JAR|false|false|D:/Software/glassfish5/glassfish/modules/javax.jms-api.jar
JAR|false|false|D:/Software/glassfish5/glassfish/modules/webservices-connector.jar
JAR|false|false|D:/Software/glassfish5/glassfish/modules/javax.resource-api.jar
JAR|false|false|D:/Software/glassfish5/glassfish/modules/javax.el.jar
JAR|false|false|D:/Software/glassfish5/glassfish/modules/jersey-media-json-processing.jar
JAR|false|false|D:/Software/glassfish5/glassfish/modules/javax.interceptor-api.jar
JAR|false|false|E:/2020sem2/FIT5042/JEE_Library/derbyclient-10.2.2.0.jar
JAR|false|false|D:/Software/glassfish5/glassfish/modules/jersey-media-multipart.jar
JAR|false|false|D:/Software/glassfish5/glassfish/modules/jersey-container-grizzly2-http.jar
JAR|false|false|C:/Program Files/Java/jdk1.8.0_251/jre/lib/ext/localedata.jar
JAR|false|false|E:/2020sem2/FIT5042/JEE_Library/commonj.sdo-2.1.1.jar
JAR|false|false|D:/Software/glassfish5/glassfish/modules/jersey-cdi1x-servlet.jar
JAR|false|false|D:/Software/glassfish5/mq/lib/jaxm-api.jar
JAR|false|false|D:/Software/glassfish5/glassfish/modules/jersey-cdi1x-transaction.jar
JAR|false|false|D:/Software/glassfish5/glassfish/modules/bean-validator.jar
JAR|false|false|D:/Software/glassfish5/glassfish/modules/jersey-media-json-jackson.jar
JAR|false|false|C:/Program Files/Java/jdk1.8.0_251/jre/lib/ext/sunjce_provider.jar
JAR|false|false|D:/Software/glassfish5/glassfish/modules/jersey-entity-filtering.jar
JAR|false|false|D:/Software/glassfish5/glassfish/modules/javax.security.auth.message-api.jar
JAR|false|false|E:/2020sem2/FIT5042/JEE_Library/org.eclipse.persistence.jpa.jpql-2.5.2.jar
JAR|false|false|D:/Software/glassfish5/glassfish/modules/cdi-api.jar
JAR|false|false|D:/Software/glassfish5/glassfish/modules/jersey-hk2.jar
JAR|false|false|D:/Software/glassfish5/glassfish/modules/javax.transaction-api.jar
JAR|false|false|D:/Software/glassfish5/glassfish/modules/org.eclipse.persistence.dbws.jar
JAR|false|false|C:/Program Files/Java/jdk1.8.0_251/jre/lib/ext/jaccess.jar
JAR|false|false|C:/Program Files/Java/jdk1.8.0_251/jre/lib/ext/jfxrt.jar
JAR|false|false|C:/Program Files/Java/jdk1.8.0_251/jre/lib/ext/zipfs.jar
JAR|false|false|D:/Software/glassfish5/glassfish/modules/webservices-osgi.jar
JAR|false|false|D:/Software/glassfish5/glassfish/modules/javax.faces.jar
URL|false|jar:file:D:/Software/glassfish5/glassfish/modules/javax.faces.jar!/META-INF/jsf_core.tld
URL|false|jar:file:D:/Software/glassfish5/glassfish/modules/javax.faces.jar!/META-INF/html_basic.tld
URL|false|jar:file:D:/Software/glassfish5/glassfish/modules/javax.faces.jar!/META-INF/mojarra_ext.tld
JAR|false|false|D:/Software/glassfish5/glassfish/modules/javax.enterprise.concurrent-api.jar
