INDEX VERSION 1.131+E:\Eclipse\week4\.metadata\.plugins\org.eclipse.jdt.core
3354973057.index
2780253508.index
963047454.index
2678634825.index
1773192287.index
2632225611.index
1991615479.index
511986.index
116050522.index
2764450053.index
1916955335.index
3316551110.index
385999350.index
2033146194.index
2200875372.index
2235237072.index
2149943262.index
3498610515.index
2657080566.index
4218403055.index
3993276655.index
2885656232.index
711050520.index
4053040176.index
3992923831.index
2640253893.index
2339826440.index
3748543269.index
1913515007.index
3839578677.index
3430249431.index
4159017284.index
970896636.index
3230209209.index
2221116094.index
3677352015.index
285639717.index
561689436.index
2973695523.index
3468398464.index
3285991507.index
4001897636.index
885758099.index
1542774334.index
3708332143.index
858989570.index
2415695180.index
47729271.index
2073846395.index
3370150513.index
549561492.index
1918906420.index
2806402570.index
2198465665.index
2247952875.index
3332621748.index
1580359864.index
2538946849.index
3507415630.index
36199935.index
3655442895.index
2630982769.index
3068803569.index
843872451.index
76655729.index
3704880075.index
2623413443.index
2064230052.index
4055624132.index
4223949742.index
269646410.index
3720716507.index
767488763.index
401924188.index
3450831843.index
850383921.index
1711318667.index
2984694885.index
3058312397.index
3449934767.index
1135569099.index
1658288859.index
2185675198.index
3564655802.index
3642586490.index
2899055303.index
1741647643.index
2180544689.index
2493184420.index
3220589106.index
135611298.index
348709378.index
3483540947.index
3166927587.index
267373846.index
588574649.index
513179262.index
1098982586.index
2863521556.index
1256151515.index
3719702408.index
400959153.index
4008081537.index
1745620367.index
1824263858.index
1431450619.index
3582323805.index
3998979257.index
714905317.index
3448711937.index
1581907028.index
2279675962.index
138030579.index
2549780674.index
686889833.index
3359104316.index
675416075.index
488006747.index
338819246.index
3212573817.index
2609714019.index
3731767603.index
370099633.index
724380870.index
2758415362.index
191029951.index
3302735478.index
1148937498.index
452116698.index
615226062.index
